{
  "AboutLayout": {
    "MENU_ABOUT_US": "Over ons",
    "MENU_CAREER": "Werken",
    "MENU_CONTACT_US": "Contact us",
    "MENU_PARTNERS": "Partners",
    "MENU_TEAM": "Team"
  },
  "AboutPage": {
    "DESCRIPTION": "In Nederland zijn er 1,4 miljoen motorrijders, waarvan 55% geen eigen motor meer heeft. Motorbezitters rijden daarentegen gemiddeld maar 3.000 km per jaar. Het gevolg is dat ontelbare motoren de meeste dagen van het jaar in de garage staan, terwijl meer dan de helft van de motorrijders niet over een motor beschikt. Dat moet slimmer kunnen.<1></1><2></2>Via de website van MotoShare kunnen liefhebbers onderling motoren delen binnen een hechte community. Zo kun je voordelig & persoonlijk een grote variatie aan motoren huren, direct bij particuliere eigenaren. Heb je zelf een motor? Verhuren is veilig en all-risk verzekerd. Jij bepaalt de verhuurprijs en beslist wie jouw motor mag huren en wanneer. Wij maken het makkelijk.",
    "DIVIDER": "Met MotoShare maken we motorrijden leuker en meer toegankelijk",
    "LINK_RENT": "Meer over huren",
    "LINK_RENTOUT": "Meer over verhuren",
    "QUOTE": "Met delen motorrijden leuker en meer toegankelijk maken",
    "SEO_DESCRIPTION": "MotoShare is een online platform waar liefhebbers onderling motoren (ver)huren. Bekijk hier de missie & visie en de testimonials van onze klanten",
    "SEO_TITLE": "Waarom wij motoren delen. Het verhaal achter MotoShare",
    "SUBDESCRIPTION": "Op 23 mei 2016 is MotoShare gelanceerd in samenwerking met OHRA en de Koninklijke Nederlandse Motorrijders Vereniging. Het was daarmee het eerste deelplatform ter wereld voor motoren. Succesvolle voorbeelden in de deeleconomie zijn er echter in overvloed: <1>Goboony</1>, (campers), <3>Snappcar</3> (auto’s), <5>Barqo</5> (boten). Wij brengen deze innovatie van slim consumeren naar de motorbranche.<7></7><8></8>Huurders en motoreigenaren sluiten via MotoShare onderling een huurovereenkomst. De eigenaren bepalen zelf de verhuurprijs van hun motor. Van de huuropbrengst gaat gemiddeld 70% naar de eigenaar. 15% wordt afgedragen aan OHRA voor een all-risk verzekering tijdens de huurperiode en 15% is commissie voor MotoShare.<10></10><11></11>Huren via MotoShare is voordelig, er is een groot & gevarieerd aanbod en je hebt persoonlijk contact met de motoreigenaar. Kortom, veel leuker!",
    "SUBTITLE": "Onze missie",
    "TESTIMONIALS_DESCRIPTION": "Geloof je ons niet? Bekijk dan de testimonials van onze gebruikers.",
    "TESTIMONIALS_TITLE": "Testimonials",
    "TITLE": "Over ons"
  },
  "AgreementPage": {
    "COOKIE_STATEMENT": "Cookieverklaring MotoShare",
    "DESCRIPTION": "Deze Algemene Voorwaarden hebben betrekking op en gelden voor het gebruik van de Dienst van MotoShare, door\na) personen die een motor verhuren\nb) personen die een motor huren",
    "FOOTER_TEXT": "MotoShare adviseert je deze Algemene Voorwaarden aandachtig door te nemen zodat je weet welke rechten en verplichtingen je hebt.",
    "PRIVACY_DECLARATION": "Privacyverklaring MotoShare",
    "SEO_DESCRIPTION": "Bekijk hier onze Algemene Voorwaarden en Cookie- en Privacy Verklaring. Deze hebben betrekking op alle huurders en eigenaren op MotoShare",
    "SEO_TITLE": "Algemene voorwaarden voor huurders & eigenaren. MotoShare",
    "TERMS_AND_CONDITIONS": "Algemene voorwaarden MotoShare",
    "TITLE": "De Algemene Voorwaarden, Cookie- en Privacy Verklaring"
  },
  "CareerPage": {
    "DESCRIPTION": "Wil jij samen met ons de motorbranche radicaal veranderen? Reageer dan op een van de onderstaande vacatures of stuur een open sollicitatie naar info@motoshare.nl.",
    "SEO_DESCRIPTION": "Wil jij samen met andere liefhebbers bouwen aan de toekomst van motorrijden? Bekijk hier de openstaande vacatures en kom soliciteren bij MotoShare",
    "SEO_TITLE": "Huidige vacatures bij MotoShare. Voor alle motorliefhebbers",
    "TITLE": "Werken bij MotoShare"
  },
  "ContactPage": {
    "DESCRIPTION": "Onze klantenservice is telefonisch bereikbaar van maandag t/m vrijdag van 12:00 tot 20:00 en op zaterdag van 12:00 tot 17:00.",
    "FAQ_OWNER": "FAQ eigenaren",
    "FAQ_RENTER": "FAQ huurders",
    "SEO_DESCRIPTION": "Onze klantenservice staat voor je klaar. Je kunt ons bereiken per mail, telefoon of WhatApp. Bekijk hier onze contactgegevens en openingstijden",
    "SEO_TITLE": "Voor hulp tijdens de (ver)huur. De MotoShare klantenservice",
    "TITLE": "Contact",
    "VIDEO_TITLE": "Een dag op kantoor"
  },
  "ContactPlate": {
    "HEADLINE_EMAIL": "E-MAIL",
    "HEADLINE_PHONE": "TELEFOON"
  },
  "PartnersPage": {
    "DESCRIPTION": "Wij werken samen met verschillende partijen om het delen van motoren mogelijk te maken.",
    "SEO_DESCRIPTION": "Met een sterk partner netwerk maakt MotoShare het delen van motoren mogelijk. Lees hier meer over onze partners: OHRA en de KNMV",
    "SEO_TITLE": "Onze partners. OHRA en KNMV steunen MotoShare met het delen van motoren",
    "TITLE": "Onze partners"
  },
  "TeamPage": {
    "DESCRIPTION_ADVISORS": "Het team wordt ondersteund door een ervaren Raad van Advies.",
    "DESCRIPTION_TEAM": "Het team van MotoShare bestaat uit enthousiaste motorrijders uit Nederland.",
    "SEO_DESCRIPTION": "Achter MotoShare staat een jong en gedreven team van motorliefhebbers. Nieuwsgierig? Bekijk hier het volledige team: Jos, Thomas, Ilia, Daan, Lynda",
    "SEO_TITLE": "Het team achter MotoShare. Dat motorverhuur mogelijk maakt",
    "TITLE_ADVISORS": "Raad van Advies",
    "TITLE_TEAM": "Het team"
  }
}