{
  "MotorcycleAvailability": {
    "TITLE": "Beschikbaarheid"
  },
  "MotorcycleGallery": {
    "COMMERCIAL_HINT_TEXT": "De huurprijs is altijd gelijk, maar als je via MotoShare boekt dan betaal je geen borg vooraf en heb je meer vrije kilometers.",
    "COMMERCIAL_HINT_TITLE": "HUURMOTOR VAN EEN DEALER"
  },
  "MotorcycleLocation": {
    "TITLE": "Locatie"
  },
  "MotorcycleMotoshareAdvantages": {
    "BIKE": "175 kilometer vrij per dag",
    "CARD": "Geen borg vooraf",
    "CLOCK": "Een huurdag van 24 uur",
    "DESC": "Deze maand zijn er al {{count}} motoren gehuurd. Probeer ‘t ook",
    "DESC_plural": "Deze maand zijn er al {{count}} motoren gehuurd. Probeer ‘t ook"
  },
  "MotorcycleNewcomers": {
    "TITLE": "Vergelijkbare advertenties"
  },
  "MotorcycleOwnerProfile": {
    "ACCEPT_RATE": "Geaccepteerd",
    "ACCEPT_RATE_TITLE": "Verzoeken geaccepteerd",
    "MEMBER": "Lid sinds",
    "REACT_TIME": "Gem. reactietijd",
    "REACT_TIME_TEXT": "{{count}} uur",
    "REACT_TIME_TEXT_LESS_1_HOUR": "< 1 uur",
    "REACT_TIME_TEXT_plural": "{{count}} uren",
    "REACT_TIME_TITLE": "Gemiddelde reactietijd",
    "RENTALS": "Verhuren"
  },
  "MotorcycleProfileRentForm": {
    "DAYS": "dagen",
    "FIELD_DATE": "Datum:",
    "FIELD_TIME": "Tijd:",
    "HOW_WORK_TEXT": "Hoe werkt MotoShare?",
    "INFO_TEXT": "'n verzoek sturen is vrijblijvend. Accepteert de verhuurder, betaal dan binnen 36u.",
    "ITEMS_ADDITIONAL": "Accessoires",
    "ITEMS_DISCOUNT": "Korting",
    "ITEMS_FEE": "Servicekosten",
    "ITEMS_PRICE": "Prijs per dag:",
    "RENT_BUTTON_TEXT": "Huurverzoek sturen",
    "RISK_TEXT": "Geen borg vooraf en all-risk verzekering & pechhulp zijn inbegrepen in de prijs.",
    "RISK_TEXT_BE": "Verzekering en pechhulp inbegrepen in de prijs.",
    "TIME_FIELD_EMPTY_ERROR": "Vul het veld in",
    "TOTAL_COST": "Totaal:"
  },
  "MotorcyclePublicProfile": {
    "BACK_URL": "Search results",
    "DESCRIPTION_SHOW_LESS": "Lees minder",
    "DESCRIPTION_SHOW_MORE": "Lees verder",
    "DESCRIPTION_TITLE": "Omschrijving",
    "INTEREST_GIFT": "Geef een huurdag cadeau",
    "INTEREST_HOW_IT_WORK": "Hoe werkt huren",
    "INTEREST_INSURANCE": "Verzekering",
    "INTEREST_RENTAL_AGREEMENT": "Onderlinge huurovereenkomst",
    "NEARBY_CITIES_AMSTERDAM": "Motor huren Amsterdam",
    "NEARBY_CITIES_DEN_HAAG": "Motor huren Den Haag",
    "NEARBY_CITIES_HAARLEM": "Motor huren Haarlem",
    "NEARBY_CITIES_ROTTERDAM": "Motor huren Rotterdam",
    "NEARBY_CITIES_UTRECHT": "Motor huren Utrecht",
    "OWNER_DESCRIPTION": "Mooie motor toch? Gelukkig dat ie van jou is =)",
    "OWNER_LINK_TEXT": "Bewerk motor",
    "OWNER_TITLE": "Dit is jouw motor",
    "REVIEWS_TITLE": "Recensies",
    "RIDERS_GEAR": "Do you not have good biker clothing? Rent Clothing from Our Partners!",
    "SCHEMA_ORG_BREADCRUMB_LIST_POSITION_1": "Motor huren",
    "SEO_DESCRIPTION_WITHOUT_BUILT_YEAR": "{{firstName}} uit {{city}} verhuurt een {{brand}} {{model}} voor €{{renterPricePerDay}}. Huur via MotoShare veilig en betaalbaar direct bij de eigenaren.",
    "SEO_DESCRIPTION_WITH_BUILT_YEAR": "{{firstName}} uit {{city}} verhuurt een {{brand}} {{model}} uit {{builtYear}} voor €{{renterPricePerDay}}. Huur via MotoShare veilig en betaalbaar direct bij de eigenaren.",
    "SEO_TITLE": "Huur een {{brand}} {{model}} voor €{{renterPricePerDay}} per dag",
    "SPECS_ABS_LABEL": "ABS",
    "SPECS_CATEGORY_LABEL": "Category",
    "SPECS_ENGINE_LABEL": "Motor",
    "SPECS_ENGINE_VALUE": "{{cc}}cc",
    "SPECS_HEATED_GRIPS_LABEL": "Handvatverwarming",
    "SPECS_PK_LABEL": "PK",
    "SPECS_TITLE": "Eigenschappen",
    "SPECS_TYPE_LABEL": "Type",
    "SPECS_VALUE_NO": "Nee",
    "SPECS_VALUE_YES": "Ja",
    "SPECS_WEIGHT_LABEL": "Gewicht",
    "SPECS_WEIGHT_VALUE": "{{weight}}kg",
    "SPECS_YEAR_LABEL": "Jaar",
    "TOP_NAV_GIFT_TEXT": "GEEF EEN HUURDAG CADEAU"
  },
  "MotorcyclePublicProfileTitle": {
    "CATEGORY": "Rijbewijs categorie {{category}}"
  },
  "MotorcyclePublicProfileTitleMobile": {
    "CATEGORY": "Rijbewijs categorie {{category}}",
    "PER_DAY": "Per dag"
  },
  "MotorcycleRentMobileButton": {
    "INFO_TEXT": "'n verzoek sturen is vrijblijvend. Accepteert de verhuurder, betaal dan binnen 36u.",
    "RENT_BUTTON_TEXT": "Huurverzoek sturen"
  },
  "MotorcyclesRecommendations": {
    "GEAR_TITLE": "Get riders gear",
    "INTEREST_LINKS_TITLE": "Interessant voor jou",
    "NEARBY_CITES_TITLE": "Steden in de buurt",
    "NEARBY_ROUTES_TITLE": "Routes in de omgeving",
    "TITLE": "Aanbeveling"
  },
  "MotoshareConditions": {
    "CONDITION_1": "175km vrij per dag (€0,24 per meer gereden km)",
    "CONDITION_2": "<0>Standaard <1>€1000</1>,- eigen risico. Dit kun je verlagen naar €500</0>",
    "CONDITION_3": "<0>Pechhulp services in <1>alle EU-lidstaten, Noorwegen, Zwitserland, IJsland en Servië</1></0>",
    "CONDITION_4": "Zet motor op slot met het bijgeleverde <1><0>{{linkText}}</0></1>",
    "CONDITION_5": "Niet toegestaan om off-road of circuit te rijden",
    "SECURITY_CLAUSE_ONE": "ART4 slot",
    "SECURITY_CLAUSE_ONE_AND_TWO": "ART4 kettingslot",
    "SECURITY_CLAUSE_TWO_AND_THREE": "ART4 kettingslot en alarm",
    "TITLE": "Voorwaarden vereist door Motoshare"
  },
  "MotoshareHowItWorks": {
    "STEP_1_TEXT": "Kies een of meerdere motoren die je leuk vind",
    "STEP_1_TITLE": "ZOEK VOOR MOTOREN",
    "STEP_2_TEXT": "Stuur geheel vrijblijvend 'n huurverzoek naar de eigenaar. Je kan binnen 24u een reactie verwachten",
    "STEP_2_TITLE": "MAAK EEN RESERVERING",
    "STEP_3_TEXT": "Als de eigenaar jouw verzoek accepteert, betaal dan binnen 36 uur en bevestig hiermee de huurovereenkomst",
    "STEP_3_TITLE": "BETAAL JE BOEKING",
    "STEP_INDEX_TEXT": "Stap",
    "SUBTITLE": "Via MotoShare kun je een motor huren bij particuliere eigenaren en dealers. Je betaalt geen borg vooraf en hebt altijd dezelfde eerlijke huurvoorwaarden.",
    "TITLE": "Hoe werkt MotoShare?"
  },
  "RentFormContainer": {
    "STATUS_HOURS_UNAVAILABLE": "De motor kan niet worden opgehaald/teruggebracht op het gekozen tijdstip. Pas de tijd aan.",
    "STATUS_INSURANCE_DETAILS_PENDING": "Op dit moment is het nog niet mogelijk deze motor te huren, omdat MotoShare nog een laatste verificatie van het profiel doet",
    "STATUS_MOTORCYCLE_OWN": "Motorcycle belongs to renter",
    "STATUS_MOTORCYCLE_UNAVAILABLE": "Motorcycle is not avaialble (banned or permanently)",
    "STATUS_PERIOD_TOO_SHORT": "Pas de huurperiode aan. De minimale tijdsduur bedraagt 2 uur.",
    "STATUS_PERIOD_UNAVAILABLE": "De motor is niet beschikbaar op deze tijden. Kies een andere periode.",
    "STATUS_RENTAL_DAYS_BELOW_MINIMAL": "De minimale huurperiode voor deze motor is {{minimalRentalDays}} dagen. Pas de periode aan",
    "STATUS_START_ALREADY_PASSED": "De motor is niet beschikbaar op deze tijden. Kies een andere periode.",
    "STATUS_TOO_SOON_FISH_DONE": "Dat is wel heel last-minute. De ophaaldatum en tijd kunnen op zijn vroegst vanaf {{startEarliest}}.",
    "STATUS_TOO_SOON_FISH_PENDING": "Omdat je nieuw bent, kunnen de ophaaldatum en tijd op zijn vroegst vanaf {{startEarliest}}."
  }
}