{
  "ChartBlock": {
    "CHART_TITLE": "Indicatie huuropbrengst per dag",
    "DESCRIPTION": "Je motor aanmelden is kosteloos en jij bepaalt zelf de verhuurprijs. Wanneer de motor wordt gehuurd, gaat 70% van de opbrengst naar de motoreigenaar, 15% naar OHRA en 15% naar MotoShare.",
    "TITLE": "Verhuur je motor via MotoShare",
    "X_TITLE": "Waarde van de motor",
    "Y_TITLE": "Huurprijs per dag"
  },
  "FormFirstStep": {
    "BRAND_DEFAULT": "Motormerk",
    "NEXT": "Bereken de huurinkomsten",
    "PRICE_DEFAULT": "Waarde van de motor",
    "REGISTER": "Registreer je motor",
    "TITLE": "Bereken hoeveel jij kunt verdienen"
  },
  "FormSecondStep": {
    "DAY_COUNT": "{{count}} dag",
    "DAY_COUNT_plural": "{{count}} dagen",
    "KM_EXTRA": "Extra km inkomsten",
    "MOTOSHARE_FEE": "Verzekering & MotoShare fee",
    "PER_DAY": "per dag",
    "PHONE_NUMBER": "Mobiel telefoonnummer",
    "PHONE_NUMBER_HINT": "Voorbeeld: {{phone}}",
    "REGISTER": "Registreer je motor",
    "SUBMIT": "Ontvang meer informatie",
    "TITLE": "Wil jij exact weten wat je kunt bijverdienen met jouw motor?",
    "TOTAL": "Geschatte inkomsten per maand"
  },
  "FormThirdStep": {
    "REGISTER": "Registreer je motor",
    "SECOND_TITLE": "Wij sturen de gids naar:",
    "TITLE": "Bedankt!"
  },
  "HeaderBlock": {
    "DESCRIPTION": "* All-risk verzekerd via OHRA\n\n* Wij screenen vooraf alle huurders\n\n* Jij bepaalt de huurprijs\n\n* Jij beslist aan wie je verhuurt & wanneer",
    "SUBTITLE": "Al meer dan 500 eigenaren verhuren hun motor via MotoShare.",
    "TITLE": "Verhuur zorgeloos je motor"
  },
  "LandingPageContainer": {
    "HOW_IT_WORKS_BUTTON": "Registreer je motor",
    "HOW_IT_WORKS_DESCRIPTION": "Een huurder kiest een motor en stuurt een huurverzoek naar de eigenaar. Als de eigenaar het verzoek accepteert, dan stuurt MotoShare een betaalverzoek naar de huurder. Nadat er is betaald, hebben de huurder en de motoreigenaar een huurovereenkomst.",
    "HOW_IT_WORKS_TITLE": "Zo werkt (ver)huren",
    "INSURANCE_BUTTON": "More info",
    "INSURANCE_DESCRIPTION": "Onder de MasterPolis MotoShare zijn de huurder en motoreigenaar goed all-risk verzekerd door OHRA. Dit is inbegrepen in de huurprijs. Bij schade heb je als verhuurder geen eigen risico.",
    "INSURANCE_TITLE": "Goed all-risk verzekerd",
    "SECURITY_INSURANCE": "All-risk verzekerd en pechhulp door OHRA",
    "SECURITY_MORE_INFO": "Meer info",
    "SECURITY_OWNER_CHECK": "Controle van alle huurders op schade- en fraudeverleden",
    "SECURITY_OWNER_INFO": "Relevante informatie van huurders is vooraf inzichtelijk",
    "SECURITY_OWNER_REVIEW": "Beoordeel huurder achteraf. Zo krijgt misbruik geen kans",
    "SECURITY_TITLE": "Het is veilig en eenvoudig",
    "SEO_DESCRIPTION": "Via MotoShare kun je makkelijk, veilig en goed all-risk verzekerd je motor verhuren. Lees hier hoe verhuren werkt en je een motor kan aanmelden",
    "SEO_KEYWORDS": "motor huren, MotoShare, huur een motor, direct van de eigenaarmotoren, particuliere motoreigenaren, motorliefhebbers, BMW huren, Harley-Davidson huren",
    "SEO_TITLE": "Verhuur ook jouw motor op MotoShare. Veilig & Eenvoudig",
    "TESTIMONIALS_DESCRIPTION": "Al meer dan 500 eigenaren uit heel Nederland verhuren hun motor. Bekijk hier hun testimonials.",
    "TESTIMONIALS_TITLE": "Motoreigenaren over MotoShare"
  }
}