{
  "AboutContainer": {
    "TITLE": "Sobre mí"
  },
  "Avatar": {
    "EDIT": "Ajustar foto"
  },
  "CredentialsContainer": {
    "TITLE": "Ajustes Inicio sesión MotoShare"
  },
  "DriverLicenceRemove": {
    "BUTTON_ABORT": "Anular",
    "BUTTON_CONFIRM": "Sí, elimina",
    "SEO_TITLE": "Elimina carnet de conducir: MotoShare",
    "TEXT": "¿De verdad quieres eliminar este carnet de conducir de tu perfil?",
    "TITLE": "Elimina carnet de conducir"
  },
  "ExperienceContainer": {
    "TITLE": "Experiencia de conducción - MotoShare"
  },
  "FacebookLink": {
    "LINK": "Enlazar mi perfil de Facebook",
    "UNLINK": "Desenlazar mi perfil de Facebook"
  },
  "FinancialContainer": {
    "TITLE": "Información financiera - MotoShare"
  },
  "HomeContainer": {
    "TITLE": "Mi perfil - MotoShare"
  },
  "NeedHelpBlock": {
    "BUTTON_TEXT": "Email MotoShare",
    "DESC": "No dudes en contactarnos por teléfono o por WhatsApp.",
    "ELSE": "O",
    "NOTE": "Estos campos se mostrarán en tus páginas públicas y serán visibles para todo el mundo.",
    "PUBLIC": "Visible públicamente",
    "PUBLIC_PROFILE_BUTTON": "Ver perfil público",
    "TITLE": "¿Tienes una pregunta?"
  },
  "PersonalContainer": {
    "TITLE": "Información personal - MotoShare"
  },
  "SubscriptionsContainer": {
    "TITLE": "Acuerdos - MotoShare"
  },
  "UserProfileAbout": {
    "ABOUT": "Cuenta algo más sobre ti",
    "NOTE": "Te aconsejamos que completes la siguiente información para que alquiles tu moto más fácilmente:",
    "SAVE": "Guardar cambios",
    "TITLE": "Sobre mí"
  },
  "UserProfileAvatarModal": {
    "CHOOSE": "Elige archivo",
    "DELETE": "Borrar mi foto de perfil",
    "FROM_FACEBOOK": "Usar mi avatar de Facebook",
    "IMAGE_FORMAT_INVALID": "Las dimensiones de tu foto son incorrectas",
    "IMAGE_NOT_FOUND": "Imagen no encontrada",
    "IMAGE_RESOLUTION_TOO_LOW": "La resolución de tu foto es demasiado baja, mínimo 200x200px",
    "TITLE": "Ajustar una foto de perfil",
    "UPLOAD": "Descargar de mis archivos"
  },
  "UserProfileChangeEmail": {
    "CHANGE_EMAIL": "Cambiar email",
    "CURRENT_EMAIL_DISABLED": "<0>Dirección de correo electrónico actual:</0> {{email}}\n",
    "NEW_EMAIL": "Nueva dirección de correo electrónico"
  },
  "UserProfileChangePassword": {
    "CHANGE_PASSWORD": "Cambiar contraseña",
    "CONFIRM_PASSWORD": "Repite la nueva contraseña",
    "CURRENT_PASSWORD": "Contraseña actual",
    "NEW_PASSWORD": "Nueva contraseña"
  },
  "UserProfileCredentials": {
    "EMAIL_SUCCESS_DESCRIPTION": "Por favor, ve a tu carpeta de entrada y confirma la nueva dirección de correo electrónico.",
    "EMAIL_SUCCESS_TITLE": "Se ha enviado email de confirmación",
    "PASSWORD_SUCCESS_BUTTON_TEXT": "Menú",
    "PASSWORD_SUCCESS_DESCRIPTION": "Nueva contraseña confirmada",
    "PASSWORD_SUCCESS_TITLE": "Contraseña cambiada exitosamente",
    "TITLE": "Ajustes Inicio sesión"
  },
  "UserProfileDriverExperience": {
    "AMOUNT_KM_PER_YEAR": "Cantidad de km que conduces por año",
    "EXPERIENCED_WITH": "Tipo de moto que condujiste",
    "NOTE": "Te aconsejamos que completes la siguiente información para que alquiles tu moto más fácilmente:",
    "OWNED_MOTORCYCLE": "Has tenido una moto propia anteriormente",
    "OWNED_MOTORCYCLE_HP": "¿Cuántos CC tuvo?",
    "OWNED_MOTORCYCLE_NO": "No",
    "OWNED_MOTORCYCLE_YES": "Sí",
    "OWN_MOTORCYCLE": "Moto propia",
    "OWN_MOTORCYCLE_HP": "¿Cuántos CC?",
    "OWN_MOTORCYCLE_NO": "Aún no",
    "OWN_MOTORCYCLE_TYPE": "Tipo de moto propia",
    "OWN_MOTORCYCLE_YES": "Sí, soy afortunado",
    "SAVE": "Guardar",
    "TITLE": "Experiencia de conducción"
  },
  "UserProfileDriverLicence": {
    "DATE_OF_BIRTH": "Fecha de Nacimiento",
    "DATE_OF_BIRTH_DISABLED": "<0>Fecha de Nacimiento:</0> {{birthday}}",
    "DRIVING_LICENCE": "Carnet de Conducir",
    "DRIVING_LICENCE_CATEGORY": "Categoría carnet de conducir",
    "DRIVING_LICENCE_CATEGORY_DISABLED": "<0>Categoría carnet conducir:</0> {{driverLicenceCategoryMoto}}",
    "DRIVING_LICENCE_COUNTRY": "País",
    "DRIVING_LICENCE_COUNTRY_DISABLED": "<0>País:</0> {{driverLicenceCountry}}",
    "DRIVING_LICENCE_NUMBER": "Número carnet conducir",
    "DRIVING_LICENCE_NUMBER_DISABLED": "<0>Carnet conducir:</0> {{driverLicence}}",
    "DRIVING_LICENCE_SINCE": "Carnet conducir desde (año)",
    "DRIVING_LICENCE_SINCE_DISABLED": "<0>Carnet conducir desde:</0> {{driverLicenceSinceYear}}",
    "REMOVE_DRIVER_LICENCE": "Elimina carnet de conducir",
    "SAVE_CHANGES": "Guardar cambios"
  },
  "UserProfileFacebookModal": {
    "LINK_DESCRIPTION": "Puedes vincular tu perfil de Facebook a tu cuenta, así la gente confiará más en tí.",
    "LINK_TITLE": "Enlazar con mi perfil de Facebook",
    "UNLINK_BUTTON": "Sí, desenlazar mi perfil de Facebook",
    "UNLINK_DESCRIPTION": "¿Quieres desenlazar tu perfil de Facebook de tu cuenta?",
    "UNLINK_TITLE": "Desenlazar mi perfil de Facebook"
  },
  "UserProfileFinancial": {
    "IBAN": "IBAN (cuenta de banco)",
    "SAVE": "Guardar cambios",
    "TITLE": "Información Financiera"
  },
  "UserProfileHome": {
    "ACTIVATION": "Activa tu cuenta",
    "ACTIVATION_COMPLETED": "Cuenta activada  | {{activatedAt}}",
    "COMPLETENESS": "Estado de mi perfil",
    "CREATED_AT": "<0>Miembro desde |</0> {{createdAt}}",
    "EXPERIENCE": "Comprobación de tu carnet de conducir",
    "EXPERIENCE_COMPLETED": "Carnet de conducir comprobado  | {{driverLicenceConfirmedAt}}",
    "FINANCIAL": "Rellena tu cuenta bancaria IBAN",
    "FINANCIAL_COMPLETED": "Información financiera completa",
    "PERSONAL": "Comprobación historial",
    "PERSONAL_COMPLETED": "Seguro concertado | {{fishCheckDoneAt}}",
    "PERSONAL_FAILED": "La comprobación ha fallido",
    "PERSONAL_PENDING": "Comprobación en proceso",
    "PROFILE": "El perfil no está completo",
    "PROFILE_COMPLETED": "El perfil está completo",
    "REQUIRED_TO_RENT": "Necesario para alquilar una moto",
    "REQUIRED_TO_RENT_OUT": "Necesario para alquilar una moto"
  },
  "UserProfileLayout": {
    "TITLE": "Mi perfil"
  },
  "UserProfileMenu": {
    "ABOUT_MYSELF": "Sobre mí",
    "AGREEMENTS": "Acuerdos",
    "DRIVING_EXPERIENCE": "Experiencia de conducción",
    "FINANCIAL_INFORMATION": "Información financiera",
    "LOG-IN_SETTINGS": "Ajustes Inicio sesión",
    "PERSONAL_INFORMATION": "Información personal",
    "TITLE": "Menú del perfil"
  },
  "UserProfilePersonal": {
    "CITY": "Ciudad",
    "COUNTRY": "País",
    "DATE_OF_BIRTH": "Fecha de Nacimiento",
    "DATE_OF_BIRTH_DISABLED": "<0>Fecha de Nacimiento:</0> {{birthday}}",
    "FIRST_NAME_DISABLED": "<0>Nombre:</0> {{firstName}}",
    "HOUSE": "Vivienda",
    "LAST_NAME_DISABLED": "<0>Apellido:</0> {{lastName}}",
    "PHONE_NUMBER": "Número teléfono",
    "PHONE_NUMBER_HINT": "Ejemplo: {{phone}}",
    "POSTCODE": "C. Postal",
    "SAVE": "Guardar cambios",
    "STREET": "Calle",
    "TITLE": "Información Personal"
  },
  "UserProfileRoot": {
    "EMAIL_SUCCESS_DESCRIPTION": "Por favor, ve a tu carpeta de entrada  confirma la nueva dirección de correo electrónico.",
    "EMAIL_SUCCESS_TITLE": "El email de confirmación ha sido enviado",
    "PASSWORD_SUCCESS_BUTTON_TEXT": "Menú",
    "PASSWORD_SUCCESS_DESCRIPTION": "Nueva contraseña confirmada",
    "PASSWORD_SUCCESS_TITLE": "Contraseña ajustada exitosamente"
  },
  "UserProfileSubscriptions": {
    "ABOUT_DESCRIPTION": "MotoShare respeta tu información personal. Por eso tratamos y almacenamos la información de forma segura, siempre. Puedes leer aquí más sobre nosotros <1> nuestra declaración de privacidad</1>.",
    "ABOUT_TITLE": "Almacenamiento de datos personales",
    "DELETE_DESCRIPTION": "¿Prefieres que nosotros borremos tu información personal? Mándamos un email a través de <1>{{countryEmail}}</1>.",
    "DELETE_TITLE": "Borrar mi perfil y toda mi información personal",
    "EXPORT_DESCRIPTION": "¿Deseas ver tus datos? Mándamos un email a través de <1>{{countryEmail}}</1>.",
    "EXPORT_TITLE": "Exportar toda mi información",
    "LINK_TEXT": "Acuerdo de Seguro",
    "MARKETING_EMAILS": "Recibir consejos sobre rutas en moto, motos especiales, historias de viajes o descuentos, a través del email.",
    "PLATFORM_EMAILS": "Recibir notificaciones a través del email sobre las peticiones de alquiler y los acuerdos de alquiler o sobre cualquier cambio.",
    "PLATFORM_EMAILS_HINT": "No puedes desactivar estos correos electrónicos porque son necesarios para el proceso de alquiler a través de MotoShare",
    "SAVE": "Guardar cambios",
    "TITLE": "Acuerdos"
  }
}