{
  "ResetPasswordEmailPage": {
    "TEXT": "¡Mira tu correo! Te hemos enviado un enlace para restablecer tu contraseña.",
    "TITLE": "Restablecer contraseña"
  },
  "SetNewPasswordPage": {
    "SUCCESS_BUTTON_TEXT": "Tablero",
    "SUCCESS_TEXT": "Se ha establecido una nueva contraseña",
    "SUCCESS_TITLE": "La contraseña se ha cambiado con éxito",
    "TOKEN_INVALID_BUTTON_TEXT": "Inténtalo de nuevo",
    "TOKEN_INVALID_TITLE": "Link incorrecto para restablecer contraseña"
  }
}